^Z:\UE_4 PROJECT\HOMEWORK_7_C++\X64\DEBUG\SOURCE.OBJ
Z:\UE_4 PROJECT\HOMEWORK_7_C++\X64\DEBUG\HOMEWORK_7_C++.EXE
Z:\UE_4 PROJECT\HOMEWORK_7_C++\X64\DEBUG\HOMEWORK_7_C++.ILK
Z:\UE_4 PROJECT\HOMEWORK_7_C++\X64\DEBUG\HOMEWORK_7_C++.PDB
